{
  "name": "ybb-theme",
  "repo": "yourbiobrands/yourbiobrands",
  "description": "",
  "version": "0.0.0",
  "styles": [
    "assets/stylesheets/theme.css",
    "assets/stylesheets/theme-map.css",
    "assets/stylesheets/base.css",
    "assets/stylesheets/fonts.css",
    "assets/stylesheets/typography.css",
    "assets/stylesheets/wp-base.css",
    "assets/stylesheets/layout.css",
    "assets/stylesheets/shame.css"
  ],
  "scripts": [
    "assets/scripts/vendor/modernizr.js",
    "index.js"
  ],
  "paths": [
    "components",
    "components_local"
  ],
  "locals": [
    "suitcss-utils",
    "header",
    "footer",
    "icon",
    "area",
    "logo",
    "banner",
    "menu",
    "button",
    "meta",
    "partner-and-seal",
    "flexslider",
    "mailchimp"
  ],
  "dependencies": {
    "components/jquery": "*",
    "components/jqueryui": "*",
    "suitcss/base": "*",
    "suitcss/utils-align": "*",
    "suitcss/utils-size": "*",
    "suitcss/utils-display": "*",
    "suitcss/utils-layout": "*",
    "suitcss/utils-position": "*",
    "suitcss/utils-text": "*",
    "suitcss/components-grid": "*",
    "suitcss/components-arrange": "*",
    "suitcss/components-flex-embed": "*"
  },
  "license": "MIT"
}
