{
  "name": "meta",
  "version": "0.0.0",
  "styles": ["meta.css"],
  "scripts": [],
  "templates": ["meta.tpl.php"],
  "dependencies": {
  },
  "license": "MIT",
  "backend": {
    "template": "meta.tpl.php",
    "arguments": {
    }
  }
}
